talleres/taller-11/fsm-cafe/coffee-machine.vcd
$date
     Nov 04, 2019       20:06:25
$end

$version
 SystemC 2.3.1-Accellera --- Nov  4 2019 18:08:26
$end

$timescale
     1 ps
$end

$scope module SystemC $end
$var wire    1  aaaaa  clk_in       $end
$var wire    1  aaaab  reset_in       $end
$var wire    1  aaaac  enable_in       $end
$var wire    1  aaaad  start_in       $end
$var wire    3  aaaae  select_in [2:0]  $end
$var wire    3  aaaaf  action_ready_in [2:0]  $end
$var wire    1  aaaag  delivered_in       $end
$var wire    4  aaaah  state_out [3:0]  $end
$var wire    1  aaaai  dropping_coffee_out       $end
$var wire    1  aaaaj  dropping_milk_out       $end
$var wire    1  aaaak  dropping_sugar_out       $end
$upscope $end
$enddefinitions  $end

$comment
All initial values are dumped below at time 1e-09 sec = 1000 timescale units.
$end

$dumpvars
1aaaaa
0aaaab
0aaaac
0aaaad
b0 aaaae
b0 aaaaf
0aaaag
b0 aaaah
0aaaai
0aaaaj
0aaaak
$end

#2000
0aaaaa

#3000
1aaaaa

#4000
0aaaaa

#5000
1aaaaa

#6000
0aaaaa

#7000
1aaaaa

#8000
0aaaaa

#9000
1aaaaa

#10000
0aaaaa

#11000
1aaaaa
1aaaab

#12000
0aaaaa

#13000
1aaaaa

#14000
0aaaaa

#15000
1aaaaa

#16000
0aaaaa

#17000
1aaaaa

#18000
0aaaaa

#19000
1aaaaa

#20000
0aaaaa

#21000
1aaaaa

#22000
0aaaaa

#23000
1aaaaa

#24000
0aaaaa

#25000
1aaaaa

#26000
0aaaaa

#27000
1aaaaa

#28000
0aaaaa

#29000
1aaaaa

#30000
0aaaaa

#31000
1aaaaa
0aaaab

#32000
0aaaaa

#33000
1aaaaa

#34000
0aaaaa

#35000
1aaaaa

#36000
0aaaaa

#37000
1aaaaa

#38000
0aaaaa

#39000
1aaaaa

#40000
0aaaaa

#41000
1aaaaa

#42000
0aaaaa

#43000
1aaaaa

#44000
0aaaaa

#45000
1aaaaa

#46000
0aaaaa

#47000
1aaaaa

#48000
0aaaaa

#49000
1aaaaa

#50000
0aaaaa

#51000
1aaaaa
1aaaac
b1 aaaah

#52000
0aaaaa

#53000
1aaaaa

#54000
0aaaaa

#55000
1aaaaa

#56000
0aaaaa

#57000
1aaaaa

#58000
0aaaaa

#59000
1aaaaa

#60000
0aaaaa

#61000
1aaaaa

#62000
0aaaaa

#63000
1aaaaa

#64000
0aaaaa

#65000
1aaaaa

#66000
0aaaaa

#67000
1aaaaa

#68000
0aaaaa

#69000
1aaaaa

#70000
0aaaaa

#71000
1aaaaa

#72000
0aaaaa

#73000
1aaaaa

#74000
0aaaaa

#75000
1aaaaa

#76000
0aaaaa

#77000
1aaaaa

#78000
0aaaaa

#79000
1aaaaa

#80000
0aaaaa

#81000
1aaaaa

#82000
0aaaaa

#83000
1aaaaa

#84000
0aaaaa

#85000
1aaaaa

#86000
0aaaaa

#87000
1aaaaa

#88000
0aaaaa

#89000
1aaaaa

#90000
0aaaaa

#91000
1aaaaa
1aaaad
b10 aaaah

#92000
0aaaaa

#93000
1aaaaa

#94000
0aaaaa

#95000
1aaaaa

#96000
0aaaaa

#97000
1aaaaa

#98000
0aaaaa

#99000
1aaaaa

#100000
0aaaaa

#101000
1aaaaa

#102000
0aaaaa

#103000
1aaaaa

#104000
0aaaaa

#105000
1aaaaa

#106000
0aaaaa

#107000
1aaaaa

#108000
0aaaaa

#109000
1aaaaa

#110000
0aaaaa

#111000
1aaaaa

#112000
0aaaaa

#113000
1aaaaa

#114000
0aaaaa

#115000
1aaaaa

#116000
0aaaaa

#117000
1aaaaa

#118000
0aaaaa

#119000
1aaaaa

#120000
0aaaaa

#121000
1aaaaa

#122000
0aaaaa

#123000
1aaaaa

#124000
0aaaaa

#125000
1aaaaa

#126000
0aaaaa

#127000
1aaaaa

#128000
0aaaaa

#129000
1aaaaa

#130000
0aaaaa

#131000
1aaaaa
b1 aaaae
b11 aaaah

#132000
0aaaaa

#133000
1aaaaa
1aaaai

#134000
0aaaaa

#135000
1aaaaa

#136000
0aaaaa

#137000
1aaaaa

#138000
0aaaaa

#139000
1aaaaa

#140000
0aaaaa

#141000
1aaaaa
b1 aaaaf
b100 aaaah

#142000
0aaaaa

#143000
1aaaaa

#144000
0aaaaa

#145000
1aaaaa

#146000
0aaaaa

#147000
1aaaaa

#148000
0aaaaa

#149000
1aaaaa

#150000
0aaaaa

#151000
1aaaaa
b10 aaaaf
b101 aaaah

#152000
0aaaaa

#153000
1aaaaa

#154000
0aaaaa

#155000
1aaaaa

#156000
0aaaaa

#157000
1aaaaa

#158000
0aaaaa

#159000
1aaaaa

#160000
0aaaaa

#161000
1aaaaa
b100 aaaaf
b110 aaaah

#162000
0aaaaa

#163000
1aaaaa

#164000
0aaaaa

#165000
1aaaaa

#166000
0aaaaa

#167000
1aaaaa

#168000
0aaaaa

#169000
1aaaaa

#170000
0aaaaa

#171000
1aaaaa
1aaaag
b1 aaaah

#172000
0aaaaa

#173000
1aaaaa
b10 aaaah

#174000
0aaaaa

#175000
1aaaaa
b11 aaaah

#176000
0aaaaa

#177000
1aaaaa

#178000
0aaaaa

#179000
1aaaaa

#180000
0aaaaa

#181000
1aaaaa
0aaaag

#182000
0aaaaa

#183000
1aaaaa

#184000
0aaaaa

#185000
1aaaaa

#186000
0aaaaa

#187000
1aaaaa

#188000
0aaaaa

#189000
1aaaaa

#190000
0aaaaa

#191000
1aaaaa
b0 aaaaf

#192000
0aaaaa

#193000
1aaaaa

#194000
0aaaaa

#195000
1aaaaa

#196000
0aaaaa

#197000
1aaaaa

#198000
0aaaaa

#199000
1aaaaa

#200000
0aaaaa

#201000
1aaaaa

#202000
0aaaaa

#203000
1aaaaa

#204000
0aaaaa

#205000
1aaaaa

#206000
0aaaaa

#207000
1aaaaa

#208000
0aaaaa

#209000
1aaaaa

#210000
0aaaaa

#211000
1aaaaa

#212000
0aaaaa

#213000
1aaaaa

#214000
0aaaaa

#215000
1aaaaa

#216000
0aaaaa

#217000
1aaaaa

#218000
0aaaaa

#219000
1aaaaa

#220000
0aaaaa

#221000
1aaaaa
b0 aaaae

#222000
0aaaaa

#223000
1aaaaa

#224000
0aaaaa

#225000
1aaaaa

#226000
0aaaaa

#227000
1aaaaa

#228000
0aaaaa

#229000
1aaaaa

#230000
0aaaaa

#231000
1aaaaa
0aaaad

#232000
0aaaaa

#233000
1aaaaa

#234000
0aaaaa

#235000
1aaaaa

#236000
0aaaaa

#237000
1aaaaa

#238000
0aaaaa

#239000
1aaaaa

#240000
0aaaaa

#241000
1aaaaa

#242000
0aaaaa

#243000
1aaaaa

#244000
0aaaaa

#245000
1aaaaa

#246000
0aaaaa

#247000
1aaaaa

#248000
0aaaaa

#249000
1aaaaa

#250000
0aaaaa

#251000
1aaaaa

#252000
0aaaaa

#253000
1aaaaa

#254000
0aaaaa

#255000
1aaaaa

#256000
0aaaaa

#257000
1aaaaa

#258000
0aaaaa

#259000
1aaaaa

#260000
0aaaaa

#261000
1aaaaa

#262000
0aaaaa

#263000
1aaaaa

#264000
0aaaaa

#265000
1aaaaa

#266000
0aaaaa

#267000
1aaaaa

#268000
0aaaaa

#269000
1aaaaa

#270000
0aaaaa

#271000
1aaaaa
0aaaac

